Alpha-work-factor per TLD

TLD       0.01      0.05      0.1       0.2       0.5       

fulllist  5         607       4030      54538     6115857   
com       4         607       4125      56725     5334181   
net       17        360       1875      19189     1043586   
uk        11        209       1013      8795      399994    
fr        3         119       576       5938      304449    
edu       35        836       4962      46543     567913    
br        1         160       1301      14476     317539    
it        6         89        467       5809      240112    
in        1         67        436       4115      235524    
org       15        348       1783      17366     349593    
nl        16        428       2307      20315     278146    
ca        8         229       1171      10453     253379    
au        14        240       1185      9856      202936    
de        16        398       1992      17275     208429    
es        1         143       1029      12003     178569    
za        3         220       1059      7820      131738    
ru        1         154       1875      18980     169190    
ar        1         86        481       5557      99903     
mx        5         196       1257      12093     112041    
us        12        236       1107      8508      104221    
dk        12        279       1850      13676     100103    
be        18        337       1712      11930     95109     
gov       19        427       2080      13396     99463     
se        25        450       2420      13787     90258     
pl        3         120       660       5414      65688     
nz        18        355       1625      9312      69463     
cn        1         16        1059      10115     75540     
ch        18        451       2191      11215     70034     
jp        24        955       4755      19772     76077     
pt        1         42        294       3362      47477     
no        15        268       1488      8834      58360     
mil       12        418       2305      12279     61701     
id        1         51        608       5818      51218     
cl        1         66        426       5024      49878     
sg        1         219       1714      9783      49179     
gr        1         43        599       5634      40207     
ie        9         186       837       4773      36892     
il        1         34        1016      6684      41178     
cz        4         119       594       4143      34643     
fi        25        615       2852      11072     44818     
tr        1         28        444       4348      32061     
co        1         183       1589      9009      36350     
my        1         139       1562      8222      33454     
eu        23        613       2430      9541      33852     
hk        1         23        651       5889      29650     
at        11        216       1035      4949      27170     
bg        1         9         176       2404      22442     
tw        1         277       1894      8387      29228     
hu        4         134       643       3464      22577     
ph        4         153       756       4375      24005     
biz       4         312       1476      6408      25626     
ro        1         28        148       1434      16946     
ae        1         97        992       4839      22455     
hr        2         91        546       2682      16198     
pe        1         64        411       2652      16027     
vn        1         1         26        1309      13622     
kr        8         698       2745      7065      20026     
info      1         8         43        750       11946     
ua        1         21        393       2843      13764     
lv        6         251       987       3530      13868     
Pk        1         8         132       1376      11137     
sk        4         71        322       1659      10728     
uy        5         225       878       3294      11621     
sa        1         3         159       1931      9327      
tv        5         209       752       2835      9599      
rs        2         61        384       1915      8284      
th        1         87        684       2765      9009      
lt        4         83        302       1215      7060      
cc        1         12        174       1466      7061      
cat       3         140       576       2286      7565      
ma        1         7         126       1061      6146      
ee        7         155       551       1932      7005      
fm        5         223       765       2442      7473      
ke        2         82        370       1610      6544      
si        6         119       481       1751      6656      
zw        3         31        130       780       5524      
is        9         178       571       1933      6716      
ve        1         87        474       2040      6738      
cr        4         146       514       1971      6387      
om        1         124       596       2057      6439      
nu        24        284       864       2303      6622      
lu        7         170       522       1736      5959      
lk        1         51        322       1414      5522      
tn        1         39        263       1229      5286      
ec        1         89        375       1572      5356      
cy        1         49        255       1034      3999      
int       4         152       521       1464      4293      
jo        1         5         134       822       3547      
lb        1         48        265       1138      3757      
mk        1         54        235       877       3447      
na        6         106       319       1121      3677      
eg        1         2         63        722       3257      
me        1         109       484       1325      3847      
qa        1         67        358       1195      3707      
ws        9         159       509       1327      3782      
cm        1         104       462       1248      3607      
bw        4         84        280       1043      3395      
do        1         74        258       974       3184      
mu        1         55        236       854       3039      
coop      10        134       432       1125      3205      
