Cracking stats per TLD (after Worldlist and Bruteforce with max 8char)

TLD        100       500      1000      5000       pw%      acc%            crack_pw    Passwords    crack_acc     Accounts

fulllist   100       498       994      4956     47.39     69.59            28524055     60194838     78129470    112279134
com        100       498       993      4944     47.73     68.55            21426636     44888784     54529181     79542863
net         99       496       994      4962     64.77     76.38             2872636      4435295      5181173      6783418
uk         100       500       997      4972     58.91     72.49             1011060      1716361      1908528      2632735
fr         100       500       999      4989     57.80     72.06              773363      1337921      1489476      2066944
edu        100       495       990      4958     60.90     68.70              948534      1557626      1359853      1979426
br         100       499       997      4978     66.70     77.29              854736      1281515      1490060      1927952
it         100       500       998      4975     52.16     67.47              526550      1009432      1038148      1538641
in         100       499       997      4957     50.87     66.39              486873       957052       958099      1443057
org        100       496       993      4967     66.97     74.94              710221      1060511      1065562      1421836
nl         100       495       992      4944     60.07     68.90              519555       864929       808540      1173567
ca         100       499       997      4975     66.13     75.02              543817       822357       853668      1137956
au         100       498       995      4973     68.98     77.18              462879       670989       722464       936106
de          98       497       993      4940     57.48     65.82              330215       574443       481791       732029
es         100       499       999      4972     57.86     67.27              297273       513804       451017       670470
za         100       500       999      4986     66.97     75.45              285884       426867       445331       590258
ru          96       491       979      4898     54.00     62.12              239386       443277       340515       548174
ar         100       499       999      4969     64.67     72.96              193677       299497       291242       399189
mx         100       500       997      4971     59.04     66.33              172535       292230       239055       360378
us          98       498       996      4977     70.67     76.54              200539       283768       274857       359095
dk         100       499       999      4877     65.42     70.98              172863       264224       233001       328242
be         100       499       997      4930     62.63     69.06              159830       255183       221092       320148
gov        100       497       994      4951     65.36     70.68              161912       247739       209599       296553
se         100       496       993      4883     62.62     67.89              140531       224405       182147       268295
pl          98       489       982      4825     61.23     68.97              117680       192192       174499       253008
nz         100       499       994      4950     73.02     77.77              134068       183611       177555       228296
cn          99       495       989      4913     57.73     64.34              109294       189307       146388       227535
ch         100       496       990      4786     64.75     69.43              110793       171108       140351       202149
jp         100       499       997      4631     62.43     65.52              106085       169920       122967       187686
pt         100       498       998      4868     65.40     73.03               90411       138242       132572       181530
no         100       499       998      4782     68.91     73.59              102334       148496       132660       180273
mil        100       496       992      4700     61.36     65.70               88395       144070       108226       164739
id         100       499       997      4904     57.69     65.40               76984       133444       107558       164452
cl         100       499       998      4834     67.23     73.27               88518       131661       119839       163566
sg         100       496       991      4693     71.36     74.58               81951       114839        97933       131320
gr         100       498       995      4599     61.64     67.32               61503        99780        80207       119147
ie         100       500       999      4776     66.99     72.76               64505        96289        86439       118795
il          99       499       989      4641     74.32     77.50               73334        98668        89114       114981
cz          99       498       993      4630     58.45     65.68               53154        90943        73956       112601
fi         100       498       979      4395     61.15     64.38               61796       101061        72421       112487
tr         100       498       994      4653     64.57     69.88               51054        79064        65691        94007
co         100       495       981      3966     57.20     61.21               46859        81917        55787        91135
my         100       495       979      4280     69.15     72.08               52216        75506        60621        84105
eu          99       490       977      4096     63.30     65.88               47077        74369        53388        81035
hk         100       500       997      4318     74.31     77.33               51458        69252        61247        79204
at         100       500       990      4383     66.65     70.64               42790        64204        52323        74069
bg         100       499       993      4361     63.77     70.18               37337        58551        50684        72218
tw         100       496       954      3999     69.14     71.35               44224        63963        49565        69470
hu         100       499       992      4334     67.07     71.68               37157        55400        47055        65646
ph         100       499       995      4281     64.96     69.45               36849        56722        45441        65434
biz         98       491       966      4179     71.24     73.46               41073        57657        47061        64062
ro         100       498       990      4267     63.51     70.92               30057        47325        43092        60759
ae          98       487       946      4119     69.69     72.74               36111        51815        42712        58721
hr         100       499       971      3965     67.79     71.86               26476        39058        32855        45721
pe         100       497       977      3802     64.66     69.30               24778        38318        30897        44583
vn          99       489       952      3555     58.61     65.91               20738        35386        28689        43529
kr          99       474       900      3797     72.25     73.14               30078        41628        31600        43204
info        13       185       542      3006     59.17     51.84               18860        31876        20663        39860
ua          92       477       924      3459     60.82     63.53               19442        31966        23127        36404
lv         100       484       889      3413     58.33     61.58               18141        31098        21220        34461
Pk          99       488       945      3594     64.29     69.81               17967        27947        23471        33620
sk          99       497       954      3740     64.73     69.63               17073        26377        21792        31298
uy         100       472       913      3741     71.22     73.16               18160        25499        20308        27757
sa          98       462       848      3466     65.63     69.47               14211        21654        17127        24654
tv          80       444       884      3789     72.66     73.53               15166        20873        16579        22548
rs         100       466       902      3428     65.12     68.50               12307        18900        14543        21232
th         100       456       767      3236     62.05     64.38               12047        19415        13400        20813
lt         100       495       937      3607     67.30     71.73               11599        17235        14598        20351
cc          55       389       756      3479     68.95     66.12               11298        16386        12331        18650
cat        100       473       833      3453     66.05     68.23               10809        16364        12007        17598
ma          99       455       826      3122     59.92     64.92                8762        14622        11005        16952
ee          98       441       848      3450     66.78     68.98               10323        15459        11664        16909
fm          99       476       814      3513     68.32     69.88               10835        15859        11721        16772
ke          99       471       846      3356     64.24     67.50                9486        14766        11101        16445
si          99       463       883      3625     69.24     71.66               10269        14831        11717        16351
zw          99       477       886      3434     65.48     70.53                8909        13605        11399        16162
is          99       439       802      3147     61.83     64.08                9082        14688        10217        15944
ve          99       445       785      3537     68.76     70.69               10018        14569        11071        15662
cr          99       465       803      3370     65.63     67.62                9022        13746         9953        14719
om          98       436       761      3440     68.03     69.78                9350        13743        10194        14608
nu          96       437       762      3408     66.58     67.65                9200        13819         9738        14395
lu          99       447       824      3458     66.93     68.87                8698        12996         9694        14075
lk          98       462       810      3364     65.28     68.25                8075        12369         9346        13694
tn          99       443       778      3304     64.29     67.57                7746        12048         9138        13524
ec          99       437       728      3146     61.05     63.70                7120        11662         8035        12613
cy         100       450       810      3674     73.38     75.54                6560         8940         7466         9883
int         96       407       759      3550     69.78     70.90                6286         9008         6686         9430
jo          95       403       748      3324     66.34     69.50                5366         8089         6313         9084
lb          94       382       715      3302     66.03     68.01                5362         8121         5937         8729
mk          96       412       719      3123     61.80     64.66                4777         7730         5539         8567
na          97       422       762      3574     71.01     72.59                5637         7938         6186         8522
eg          96       387       697      3227     64.31     68.17                4812         7482         5761         8451
me          91       328       630      2954     59.02     60.50                4751         8050         5086         8407
qa          96       376       685      3343     67.00     68.65                5289         7894         5749         8374
ws          89       387       740      3598     72.42     73.16                5702         7873         5987         8183
cm          98       393       759      3503     70.33     71.49                5302         7539         5622         7864
bw          98       400       700      3243     63.96     66.05                4679         7315         5179         7841
do          95       415       756      3551     70.89     72.44                4867         6866         5335         7365
mu          97       427       795      3610     71.58     73.55                4783         6682         5359         7286
coop        98       390       750      3643     72.98     73.88                4869         6672         5123         6934
