Beta-success-rate entropy per country

TLD       1         10        100       1000      

fulllist  7.26      9.7       12.06     14.0      
com       7.21      9.64      12.04     14.01     
net       8.74      10.3      11.91     13.64     
uk        8.96      9.98      11.5      13.29     
fr        7.09      9.11      11.08     13.0      
edu       9.4       10.74     12.47     14.17     
br        6.54      9.12      11.23     13.4      
it        7.56      9.51      10.87     12.94     
in        5.95      8.52      10.76     12.88     
org       8.59      10.19     11.88     13.61     
nl        9.27      10.28     11.99     13.75     
ca        7.92      9.81      11.57     13.38     
au        9.05      10.19     11.66     13.39     
de        8.07      10.23     11.99     13.68     
es        6.6       9.05      11.17     13.3      
za        7.06      9.45      11.49     13.32     
ru        6.41      8.72      11.13     13.55     
ar        6.29      8.97      10.87     12.95     
mx        7.13      9.6       11.41     13.4      
us        9.19      10.08     11.61     13.35     
dk        7.87      10.06     11.64     13.59     
be        8.8       10.34     11.89     13.59     
gov       9.18      10.36     12.01     13.73     
se        9.04      10.68     12.1      13.79     
pl        7.24      9.2       11.08     13.07     
nz        9.44      10.35     11.94     13.59     
cn        5.14      7.76      10.54     13.31     
ch        7.97      10.24     12.06     13.76     
jp        8.49      10.38     12.42     14.26     
pt        6.49      8.5       10.49     12.76     
no        8.53      10.22     11.65     13.51     
mil       8.79      10.05     11.9      13.76     
id        5.82      8.35      10.71     13.07     
cl        6.11      8.74      10.71     12.93     
sg        6.56      8.87      11.33     13.55     
gr        5.47      8.13      10.64     13.09     
ie        8.96      9.85      11.41     13.18     
il        5.13      8.0       10.65     13.29     
cz        7.27      9.37      11.08     13.01     
fi        9.57      10.69     12.2      13.98     
tr        5.19      7.98      10.5      12.99     
co        6.54      9.07      11.25     13.5      
my        5.74      8.41      11.07     13.49     
eu        8.18      10.41     12.3      13.92     
hk        5.14      7.89      10.59     13.12     
at        7.85      9.98      11.51     13.31     
bg        5.06      7.57      10.15     12.64     
tw        6.39      8.86      11.35     13.72     
hu        7.2       9.43      11.16     13.04     
ph        7.17      9.4       11.25     13.13     
biz       7.62      9.55      11.7      13.52     
ro        6.34      8.31      10.17     12.45     
ae        5.72      8.3       10.95     13.28     
hr        6.71      8.99      10.91     12.95     
pe        5.77      8.47      10.72     12.85     
vn        3.91      6.8       9.7       12.39     
kr        7.5       9.85      12.21     14.03     
info      6.33      7.41      9.6       12.2      
ua        6.12      7.91      10.46     12.86     
lv        7.51      9.67      11.6      13.28     
Pk        5.36      7.51      10.06     12.46     
sk        7.2       9.12      10.72     12.63     
uy        7.11      9.59      11.51     13.17     
sa        4.59      7.31      10.09     12.59     
tv        7.62      9.49      11.48     13.04     
rs        6.67      8.78      10.69     12.64     
th        5.8       8.25      10.91     13.08     
lt        7.27      9.2       10.82     12.45     
cc        6.41      7.7       10.16     12.48     
cat       6.99      9.18      11.18     12.94     
ma        4.8       7.5       10.05     12.31     
ee        7.72      9.7       11.27     12.75     
fm        7.71      9.56      11.53     13.1      
ke        6.75      8.98      10.83     12.58     
si        7.75      9.43      11.08     12.66     
zw        7.83      8.67      10.12     12.15     
is        7.48      9.87      11.46     12.79     
ve        5.81      8.47      10.89     12.87     
cr        7.08      9.43      11.21     12.87     
om        6.13      8.67      11.06     12.94     
nu        9.29      10.71     12.0      13.16     
lu        7.61      9.69      11.41     12.72     
lk        5.48      8.23      10.62     12.52     
tn        5.84      8.23      10.47     12.42     
ec        6.37      8.97      10.89     12.66     
cy        5.99      8.5       10.54     12.31     
int       7.56      9.39      11.32     12.7      
jo        4.78      7.42      10.08     12.15     
lb        5.76      8.16      10.63     12.41     
mk        6.48      8.64      10.55     12.19     
na        7.47      9.47      11.0      12.39     
eg        4.49      7.07      9.84      12.07     
me        6.05      8.77      11.02     12.6      
qa        5.82      8.36      10.75     12.47     
ws        7.91      9.86      11.45     12.61     
cm        6.33      8.88      10.99     12.54     
bw        7.16      9.24      10.85     12.33     
do        6.31      8.82      10.77     12.26     
mu        5.82      8.43      10.64     12.15     
coop      8.95      9.89      11.28     12.42     
