Beta-success-rate per country

TLD       1         10        100       1000      

fulllist  0.0065    0.012     0.0234    0.0609    
com       0.0068    0.0125    0.0238    0.0607    
net       0.0023    0.0079    0.0259    0.0785    
uk        0.002     0.0099    0.0346    0.0995    
fr        0.0074    0.0181    0.0461    0.1219    
edu       0.0015    0.0059    0.0176    0.0541    
br        0.0108    0.018     0.0418    0.0927    
it        0.0053    0.0138    0.0534    0.1273    
in        0.0162    0.0272    0.0577    0.1328    
org       0.0026    0.0086    0.0266    0.0801    
nl        0.0016    0.008     0.0246    0.0724    
ca        0.0041    0.0111    0.0328    0.0941    
au        0.0019    0.0086    0.031     0.0934    
de        0.0037    0.0083    0.0246    0.0761    
es        0.0103    0.0189    0.0435    0.0991    
za        0.0075    0.0143    0.0347    0.0977    
ru        0.0117    0.0237    0.0446    0.0834    
ar        0.0128    0.0199    0.0536    0.126     
mx        0.0072    0.0128    0.0368    0.0926    
us        0.0017    0.0092    0.0321    0.096     
dk        0.0043    0.0094    0.0314    0.0813    
be        0.0022    0.0077    0.0264    0.081     
gov       0.0017    0.0076    0.0242    0.0738    
se        0.0019    0.0061    0.0228    0.0705    
pl        0.0066    0.017     0.0463    0.116     
nz        0.0014    0.0076    0.0254    0.0811    
cn        0.0285    0.0461    0.0671    0.0987    
ch        0.004     0.0083    0.0235    0.0722    
jp        0.0028    0.0075    0.0183    0.051     
pt        0.0111    0.0276    0.0697    0.1438    
no        0.0027    0.0084    0.0312    0.0858    
mil       0.0023    0.0094    0.0262    0.0721    
id        0.0177    0.0307    0.0598    0.1161    
cl        0.0145    0.0234    0.0596    0.1284    
sg        0.0106    0.0213    0.0389    0.0834    
gr        0.0225    0.0357    0.0626    0.1144    
ie        0.002     0.0109    0.0368    0.1081    
il        0.0286    0.039     0.0623    0.0996    
cz        0.0065    0.0151    0.0463    0.1214    
fi        0.0013    0.0061    0.0213    0.062     
tr        0.0274    0.0396    0.0692    0.1231    
co        0.0107    0.0186    0.0411    0.0863    
my        0.0187    0.0295    0.0465    0.0867    
eu        0.0035    0.0073    0.0199    0.0644    
hk        0.0284    0.0422    0.0648    0.1125    
at        0.0043    0.0099    0.0342    0.0986    
bg        0.03      0.0527    0.088     0.1563    
tw        0.0119    0.0216    0.0382    0.0743    
hu        0.0068    0.0145    0.0436    0.1188    
ph        0.007     0.0148    0.041     0.1112    
biz       0.0051    0.0133    0.03      0.0852    
ro        0.0124    0.0315    0.087     0.1786    
ae        0.019     0.0317    0.0505    0.1003    
hr        0.0096    0.0196    0.0521    0.1264    
pe        0.0183    0.0281    0.0595    0.1358    
vn        0.0666    0.0899    0.1204    0.1858    
kr        0.0055    0.0108    0.0212    0.0596    
info      0.0124    0.0587    0.1291    0.2126    
ua        0.0143    0.0416    0.071     0.1343    
lv        0.0055    0.0123    0.0322    0.1008    
Pk        0.0243    0.055     0.0934    0.1777    
sk        0.0068    0.018     0.0593    0.1579    
uy        0.0072    0.013     0.0344    0.1088    
sa        0.0414    0.063     0.092     0.1622    
tv        0.0051    0.0139    0.035     0.1186    
rs        0.0098    0.0228    0.0606    0.1569    
th        0.0179    0.033     0.0519    0.1152    
lt        0.0065    0.0171    0.0554    0.179     
cc        0.0117    0.0482    0.0876    0.175     
cat       0.0078    0.0172    0.0432    0.1269    
ma        0.0359    0.0552    0.0941    0.1964    
ee        0.0047    0.0121    0.0404    0.1449    
fm        0.0048    0.0132    0.0339    0.1141    
ke        0.0093    0.0198    0.0548    0.1629    
si        0.0046    0.0145    0.0462    0.1541    
zw        0.0044    0.0246    0.0898    0.2201    
is        0.0056    0.0107    0.0355    0.1415    
ve        0.0179    0.0282    0.0526    0.1336    
cr        0.0074    0.0145    0.0423    0.134     
om        0.0143    0.0245    0.0468    0.1277    
nu        0.0016    0.006     0.0245    0.1095    
lu        0.0051    0.0121    0.0369    0.1477    
lk        0.0223    0.0333    0.0634    0.1698    
tn        0.0175    0.0333    0.0705    0.1831    
ec        0.0121    0.02      0.0527    0.1547    
cy        0.0158    0.0276    0.067     0.1966    
int       0.0053    0.015     0.039     0.1508    
jo        0.0364    0.0583    0.0926    0.2196    
lb        0.0184    0.0349    0.0632    0.1842    
mk        0.0112    0.0251    0.0667    0.2144    
na        0.0056    0.0141    0.0487    0.1859    
eg        0.0446    0.0747    0.1092    0.233     
me        0.0151    0.0228    0.0481    0.1614    
qa        0.0177    0.0303    0.0579    0.1767    
ws        0.0042    0.0108    0.0358    0.1601    
cm        0.0125    0.0212    0.0491    0.1685    
bw        0.007     0.0166    0.0543    0.1946    
do        0.0126    0.0221    0.0573    0.2035    
mu        0.0177    0.029     0.0629    0.2201    
coop      0.002     0.0105    0.0402    0.182     
