\beamer@sectionintoc {1}{Motivation}{3}{0}{1}
\beamer@sectionintoc {2}{Common Practices}{4}{0}{2}
\beamer@sectionintoc {3}{LinkedIn Leak}{5}{0}{3}
\beamer@sectionintoc {4}{Forschungsfrage}{7}{0}{4}
\beamer@sectionintoc {5}{Unterschiede zwischen L\IeC {\"a}ndern}{8}{0}{5}
\beamer@sectionintoc {6}{Globale vs l\IeC {\"a}nderspezifische Listen}{10}{0}{6}
\beamer@sectionintoc {7}{Metriken}{14}{0}{7}
